Editing DwC taxon data
…
We start by loading packages needed for this vignette:

library(dwctaxon)
library(tibble) # recommended for pretty-printing of tibbles

The data

dwctaxon comes with an example dataset dct_filmies,
taxonomic data of filmy ferns (family
Hymenophyllaceae). Let’s take a quick look at the data (you may need
to scroll to the right of the frame with the code to see all the
text):

dct_filmies
#> # A tibble: 2,451 × 5
#>    taxonID  acceptedNameUsageID taxonomicStatus taxonRank scientificName                            
#>    <chr>    <chr>               <chr>           <chr>     <chr>                                     
#>  1 54115096 <NA>                accepted        species   Cephalomanes atrovirens Presl             
#>  2 54133783 54115097            synonym         species   Trichomanes crassum Copel.                
#>  3 54115097 <NA>                accepted        species   Cephalomanes crassum (Copel.) M. G. Price 
#>  4 54133784 54115098            synonym         species   Trichomanes densinervium Copel.           
#>  5 54115098 <NA>                accepted        species   Cephalomanes densinervium (Copel.) Copel. 
#>  6 54133786 54115100            synonym         species   Cephalomanes curvatum (J. Sm.) V. D. Bosch
#>  7 54133787 54115100            synonym         species   Cephalomanes javanica (Bl.) V. D. Bosch   
#>  8 54133788 54115100            synonym         species   Cephalomanes oblongifolium Presl          
#>  9 54133789 54115100            synonym         species   Cephalomanes zollingeri V. D. Bosch       
#> 10 54133790 54115100            synonym         species   Lacostea javanica (Bl.) Prantl            
#> # ℹ 2,441 more rows
…
Notice that although we did not specify taxonID or
modified, these columns are automatically filled by
default2;
they can be turned off by setting the fill_taxon_id and
stamp_modified arguments to FALSE.

The names of the new values should be valid DwC terms. You can see
the terms available with dct_terms:

dct_terms
#> # A tibble: 47 × 2
#>    group term               
#>  * <chr> <chr>              
#>  1 taxon taxonID            
#>  2 taxon scientificNameID   
#>  3 taxon acceptedNameUsageID
#>  4 taxon parentNameUsageID  
#>  5 taxon originalNameUsageID
#>  6 taxon nameAccordingToID  
#>  7 taxon namePublishedInID  
#>  8 taxon taxonConceptID     
#>  9 taxon scientificName     
#> 10 taxon acceptedNameUsage  
#> # ℹ 37 more rows
…
