Validating DwC taxon data
…
library(dwctaxon)
library(dplyr)

set.seed(12345)

The data

As before,
we will use the example dataset that comes with dwctaxon,
dct_filmies:

dct_filmies
#> # A tibble: 2,451 × 5
#>    taxonID  acceptedNameUsageID taxonomicStatus taxonRank scientificName                            
#>    <chr>    <chr>               <chr>           <chr>     <chr>                                     
#>  1 54115096 <NA>                accepted        species   Cephalomanes atrovirens Presl             
#>  2 54133783 54115097            synonym         species   Trichomanes crassum Copel.                
#>  3 54115097 <NA>                accepted        species   Cephalomanes crassum (Copel.) M. G. Price 
#>  4 54133784 54115098            synonym         species   Trichomanes densinervium Copel.           
#>  5 54115098 <NA>                accepted        species   Cephalomanes densinervium (Copel.) Copel. 
#>  6 54133786 54115100            synonym         species   Cephalomanes curvatum (J. Sm.) V. D. Bosch
#>  7 54133787 54115100            synonym         species   Cephalomanes javanica (Bl.) V. D. Bosch   
#>  8 54133788 54115100            synonym         species   Cephalomanes oblongifolium Presl          
#>  9 54133789 54115100            synonym         species   Cephalomanes zollingeri V. D. Bosch       
#> 10 54133790 54115100            synonym         species   Lacostea javanica (Bl.) Prantl            
#> # ℹ 2,441 more rows
…
filmies_dirty
#> # A tibble: 2,457 × 6
#>    taxonID  acceptedNameUsageID taxonomicStatus taxonRank scientificName                             modified                  
#>    <chr>    <chr>               <chr>           <chr>     <chr>                                      <chr>                     
#>  1 54115096 <NA>                good            species   Cephalomanes atrovirens Presl              2023-12-13 18:14:21.349524
#>  2 54133783 54115097            synonym         species   Trichomanes crassum Copel.                 <NA>                      
#>  3 54115097 <NA>                accepted        species   Cephalomanes crassum (Copel.) M. G. Price  <NA>                      
#>  4 54133784 54115098            synonym         species   Trichomanes densinervium Copel.            <NA>                      
#>  5 54115098 <NA>                accepted        species   Cephalomanes densinervium (Copel.) Copel.  <NA>                      
#>  6 54133786 54115100            synonym         species   Cephalomanes curvatum (J. Sm.) V. D. Bosch <NA>                      
#>  7 54133787 54115100            synonym         species   Cephalomanes javanica (Bl.) V. D. Bosch    <NA>                      
#>  8 54133788 54115100            synonym         species   Cephalomanes oblongifolium Presl           <NA>                      
#>  9 54133789 54115100            synonym         species   Cephalomanes zollingeri V. D. Bosch        <NA>                      
#> 10 54133790 54115100            synonym         species   Lacostea javanica (Bl.) Prantl             <NA>                      
#> # ℹ 2,447 more rows
…
